{
  "versionJeu"  : "2.1.13",
  "lienMHE"     : "https://depot.vwa.re/ludofloria/myhordes-enhancer/-/releases/permalink/latest/downloads/scripts/userscript.user.js",
  "lienMHO"     : "https://github.com/zerah54/MyHordesOptimizer/raw/main/Scripts/Tampermonkey/my_hordes_optimizer.user.js",
  "lienDiscord" : "https://discord.gg/xmWcyeQBDs",
  "lienCrowdin" : "https://crowdin.com/project/gesthordes",
  "lienGit"     : "https://gitlab.com/eragaming/gh-develop",
  "habilitation": {
	"ville"       : {
	  "carte" : {
		"user" : true,
		"beta" : true,
		"admin": true
	  },
	  "banque": {
		"user" : true,
		"beta" : true,
		"admin": true
	  },
	  "ruine" : {
		"user" : true,
		"beta" : true,
		"admin": true
	  }
	},
	"hotel"       : {
	  "citoyens"   : {
		"user" : true,
		"beta" : true,
		"admin": true
	  },
	  "journal"    : {
		"user" : true,
		"beta" : true,
		"admin": true
	  },
	  "plans"      : {
		"user" : true,
		"beta" : true,
		"admin": true
	  },
	  "stats"      : {
		"user" : true,
		"beta" : true,
		"admin": true
	  },
	  "tour"       : {
		"user" : true,
		"beta" : true,
		"admin": true
	  },
	  "inscription": {
		"user" : true,
		"beta" : true,
		"admin": true
	  }
	},
	"outils"      : {
	  "reparation": {
		"user" : true,
		"beta" : true,
		"admin": true
	  },
	  "chantiers" : {
		"user" : false,
		"beta" : false,
		"admin": true
	  },
	  "veilles"   : {
		"user" : false,
		"beta" : false,
		"admin": false
	  },
	  "decharge"  : {
		"user" : true,
		"beta" : true,
		"admin": true
	  },
	  "expe"      : {
		"user" : true,
		"beta" : true,
		"admin": true
	  },
	  "cm"        : {
		"user" : false,
		"beta" : false,
		"admin": false
	  }
	},
	"jump"        : {
	  "inscription": {
		"user" : true,
		"beta" : true,
		"admin": true
	  },
	  "coalitions" : {
		"user" : true,
		"beta" : true,
		"admin": true
	  },
	  "creations"  : {
		"user" : true,
		"beta" : true,
		"admin": true
	  },
	  "gestions"   : {
		"user" : true,
		"beta" : true,
		"admin": true
	  }
	},
	"villes"      : {
	  "user" : true,
	  "beta" : true,
	  "admin": true
	},
	"statistiques": {
	  "user" : true,
	  "beta" : true,
	  "admin": true
	},
	"contact"     : {
	  "user" : true,
	  "beta" : true,
	  "admin": true
	},
	"ruineGame"   : {
	  "user" : true,
	  "beta" : true,
	  "admin": true
	},
	"encyclopedie": {
	  "batiments": {
		"user" : true,
		"beta" : true,
		"admin": true
	  },
	  "chantiers": {
		"user" : true,
		"beta" : true,
		"admin": true
	  },
	  "citoyens" : {
		"user" : true,
		"beta" : true,
		"admin": true
	  },
	  "objets"   : {
		"user" : true,
		"beta" : true,
		"admin": true
	  },
	  "villes"   : {
		"user" : true,
		"beta" : true,
		"admin": true
	  }
	},
	"ame"         : {
	  "moname"    : {
		"user" : true,
		"beta" : true,
		"admin": true
	  },
	  "classement": {
		"user" : true,
		"beta" : true,
		"admin": true
	  }
	},
	"admin"       : {
	  "user" : false,
	  "beta" : false,
	  "admin": true
	}
  },
  "miseEnAvant" : [
	{
	  "id"   : "DBqTrYyV27MwXh9zt0CkE16n",
	  "nom"  : "CoH/CdH",
	  "icone": "r_cdh"
	}
  ]
}