<?xml version="1.0" encoding="utf-8"?>
<!-- Generator: Adobe Illustrator 24.1.2, SVG Export Plug-In . SVG Version: 6.00 Build 0)  -->
<svg version="1.1" baseProfile="tiny" id="Calque_1"
     xmlns="http://www.w3.org/2000/svg" x="0px" y="0px" viewBox="0 0 42 42"
     overflow="visible" xml:space="preserve">
<g>
	<g>
		<path fill="currentColor" stroke="currentColor" stroke-linecap="round" stroke-miterlimit="10" d="M38.3,22c-4.2,0-24.1,0-28.3,0l1.4,6
			c-2.1-2.7-5.7-5.5-8.4-7c2.7-1.5,6.3-4.3,8.4-7L10,20c4.2,0,24.1,0,28.3,0C39.3,20,39.2,22,38.3,22z"/>
	</g>
</g>
</svg>
