<?xml version="1.0" encoding="utf-8"?>
<!-- Generator: Adobe Illustrator 24.1.2, SVG Export Plug-In . SVG Version: 6.00 Build 0)  -->
<svg version="1.1" baseProfile="tiny" id="Calque_1"
     xmlns="http://www.w3.org/2000/svg" x="0px" y="0px" viewBox="0 0 42 42"
     overflow="visible" xml:space="preserve">
<g>
	<g>
		<path fill="currentColor" stroke="currentColor" stroke-linecap="round" stroke-miterlimit="10" d="M22,3.7c0,4.2,0,24.1,0,28.3l6-1.4
			c-2.7,2.1-5.5,5.7-7,8.4c-1.5-2.7-4.3-6.3-7-8.4l6,1.4c0-4.2,0-24.1,0-28.3C20,2.7,22,2.8,22,3.7z"/>
	</g>
</g>
</svg>
