<?xml version="1.0" encoding="utf-8"?>
<!-- Generator: Adobe Illustrator 24.1.2, SVG Export Plug-In . SVG Version: 6.00 Build 0)  -->
<svg xmlns:xlink="http://www.w3.org/1999/xlink" version="1.1" baseProfile="tiny"
     id="Calque_1" xmlns="http://www.w3.org/2000/svg" x="0px" y="0px" viewBox="0 0 16 16"
     overflow="visible" xml:space="preserve">
<image width="16" height="16" xlink:href="data:image/gif;base64,R0lGODlhEAAQANUuAAAAABkNB3snGt25kIlGHt3VsqrC/zIIBf/s1nqMvqVlOU4YEk8ZDsSPYJKo
5PDAVZpoU////5FPJty4j4RWRcONXXqPwsZpKGZCM1MTDKukiVQUDcmXZ9GjdanB/aehicSIbnZN
PcS8n9myh6FhNXeKvmQbElISDGl9r86gcWgdE2x+rdrSscqYaX5NKgAAAAAAAAAAAAAAAAAAAAAA
AAAAAAAAAAAAAAAAAAAAAAAAAAAAAAAAAAAAAAAAAAAAACH5BAEAAC4ALAAAAAAQABAAAAaTQJdw
SAQYiUKj0lhoAooDgEKgABQS2MLTBRg0AIwFgGUxmBNarpJBAIhK5ogjLWUowgDNyhMxzJ8ACAMT
U20fKAl/SQ0CAgsLBG0PDxdbXIIDFQsHBwQBGAFFCI0pDScSniGhQwCMAwImGZ0BFKtJowMjHRyc
ARC2l40CKhuzIMCBA8oCLSSeD8hLS77ASEQB2ENBADs=">
</image>
</svg>
