<?xml version="1.0" encoding="utf-8"?>
<!-- Generator: Adobe Illustrator 24.1.2, SVG Export Plug-In . SVG Version: 6.00 Build 0)  -->
<svg xmlns:xlink="http://www.w3.org/1999/xlink" version="1.1" baseProfile="tiny"
     id="Calque_1" xmlns="http://www.w3.org/2000/svg" x="0px" y="0px" viewBox="0 0 19 19"
     overflow="visible" xml:space="preserve">
<image width="19" height="19" xlink:href="data:image/gif;base64,R0lGODlhEwATALMJAHQ8Df/94//Za//6ov2dSodJFrRpKgYGBv///35NKgAAAAAAAAAAAAAAAAAA
AAAAACH5BAEAAAkALAAAAAATABMAAARdMMlJq70Yn813TodhECRhFIc2DmxLoFfYdXAVmgggALlY
TyHBQGAginwpSlBIGI4KpySwaDIAAKLXb0oIIL6IgEmqFM1C2zKhM86EVgMt2XIo2O/z2D3t5nz+
gIARADs=">
</image>
</svg>
