<svg xmlns:xlink="http://www.w3.org/1999/xlink" xmlns="http://www.w3.org/2000/svg" width="16" height="16" viewBox="0 0 16 16">
    <image id="Calque_1" data-name="Calque 1" x="3" y="3" width="11" height="9"
           xlink:href="data:img/png;base64,iVBORw0KGgoAAAANSUhEUgAAAAsAAAAJCAYAAADkZNYtAAAAh0lEQVQYlY1QwQnDMAw8hW5QSHdI/93C2SMTtfPkF//rHRpoVrhgZDkO6qMHwvL5ZB0nAIg/0WUZyVIB32ePg9O7cYUn+b5R+1BP46w61Y/eR4rY5rPDS+2GB0hgey0ngVm4TmsjThFy/7gNWWQoNlBXkswJ/YSKU3SPNtym4XLOP4uIzx7ADtjHTF+yH3/5AAAAAElFTkSuQmCC"/>
</svg>
