<?xml version="1.0" encoding="UTF-8"?>
<svg xmlns="http://www.w3.org/2000/svg" xmlns:xlink="http://www.w3.org/1999/xlink" width="18" height="15" viewBox="0 0 18 15">
    <image width="18" height="15" x="0" y="0" xlink:href="data:img/png;base64,iVBORw0KGgoAAAANSUhEUgAAABIAAAAPBAMAAAAbqIIhAAAAGFBMVEUAAAD/////9k3/2DT0siwAAAAAAAAAAADvS4VjAAAABnRSTlP//////wCzv6S/AAAAXElEQVR4nFWNwQ2AIBAEF/b4qxVgrgESKYAoBfC5/lsRMSQ6r8lmkoVN0PAS0NZdtdYrfDbDguQQDeYiTofSzZP0SN3oRZgfEyTh6ARFZHRE4bDPx6aacz1+H5MbWaMSQM4HQakAAAAASUVORK5CYII="/>
</svg>