<?xml version="1.0" encoding="utf-8"?>
<!-- Generator: Adobe Illustrator 24.1.2, SVG Export Plug-In . SVG Version: 6.00 Build 0)  -->
<svg xmlns:xlink="http://www.w3.org/1999/xlink" version="1.1" baseProfile="tiny"
     id="Calque_1" xmlns="http://www.w3.org/2000/svg" x="0px" y="0px" viewBox="0 0 16 16"
     overflow="visible" xml:space="preserve">
<image width="16" height="16" xlink:href="data:image/gif;base64,R0lGODlhEAAQALMPAAAAAGc6GUgpEbNpM+PDmf/YNO7qwtR+PuOELY9RI39IH62HZm8/G3snGvSy
LH5NKiH5BAEAAA8ALAAAAAAQABAAAARe8MlJq70U6M27NgYhCiEBLqgWrIGACGwrCNoxBINQCPdw
JApGbRZAFBCsX3BoLDiPAKUQMLg1HAVHAyfVVIuFxpELnFZdDUHj5SurZLAZDP4JlUQiA2rh6XMw
gIEVEQA7">
</image>
</svg>
