<?xml version="1.0" encoding="utf-8"?>
<!-- Generator: Adobe Illustrator 24.1.2, SVG Export Plug-In . SVG Version: 6.00 Build 0)  -->
<svg xmlns:xlink="http://www.w3.org/1999/xlink" version="1.1" baseProfile="tiny"
     id="Calque_1" xmlns="http://www.w3.org/2000/svg" x="0px" y="0px" viewBox="0 0 16 16"
     overflow="visible" xml:space="preserve">
<image width="16" height="16" xlink:href="data:image/gif;base64,R0lGODlhEAAQAMQSAAAAAEtRV3ynl6iwuBwACnqBiGNpcNTY3H2Ei291fP8AAJGZoKvm0f///2SH
er7/55efpqWoq35NKgAAAAAAAAAAAAAAAAAAAAAAAAAAAAAAAAAAAAAAAAAAAAAAAAAAACH5BAEA
ABIALAAAAAAQABAAAAV4oCSOQFmOKDkcx1AAqWhGQf2e5NHsDTv8A5gEcAgYCoVEwlCrBYfFY3LZ
DDyHq95iiyxcoQgIBEE2mK9EI1LJbD4BBIJ02XbCCArCarBddJ94eWFjZWd3eAQMD4uKDI4MAnd5
ApQCDpYOl5ESiJWelUJxBCakJiIhADs=">
</image>
</svg>
