<?xml version="1.0" encoding="utf-8"?>
<!-- Generator: Adobe Illustrator 24.1.2, SVG Export Plug-In . SVG Version: 6.00 Build 0)  -->
<svg xmlns:xlink="http://www.w3.org/1999/xlink" version="1.1" baseProfile="tiny"
     id="Calque_1" xmlns="http://www.w3.org/2000/svg" x="0px" y="0px" viewBox="0 0 16 16"
     overflow="visible" xml:space="preserve">
<image width="16" height="16" xlink:href="data:image/gif;base64,R0lGODlhEAAQALMPAAAOBC7YYBwAChOROAAPH0L/ZgAODmLl1zBxak62qy0SAARrJDn7czeCejPq
an5NKiH5BAEAAA8ALAAAAAAQABAAAARN8MlJq704W8J7r0ZYjORIUEEwpGwLTKExzLM6Ly8MAANe
AAtHIEcRHA6CJG9AlCgOCATyAWAMK89oQkDdNR9ZxFajSJgbXE0yqWm7LREAOw==">
</image>
</svg>
