<?xml version="1.0" encoding="utf-8"?>
<!-- Generator: Adobe Illustrator 24.1.2, SVG Export Plug-In . SVG Version: 6.00 Build 0)  -->
<svg xmlns:xlink="http://www.w3.org/1999/xlink" version="1.1" baseProfile="tiny"
     id="Calque_1" xmlns="http://www.w3.org/2000/svg" x="0px" y="0px" viewBox="0 0 16 16"
     overflow="visible" xml:space="preserve">
<image width="16" height="16" xlink:href="data:image/gif;base64,R0lGODlhEAAQALMJAEYVC84/IKExGXMjEvtMJnFhZlhMUnR+i5Fzdn5NKgAAAAAAAAAAAAAAAAAA
AAAAACH5BAEAAAkALAAAAAAQABAAAARkMMkJqp1YAkGC+EBmBV0XeKE2bETbHoeQAsNKtmcnrAnN
5gVPoACqCIZAz7HA2ww5JwHxGQIYakfEJ8qsGiq1QvDz4fVQA2ZtEKhVoyu3xex0y+CpXrpgAZy6
GBcaO2YZIhUYEQA7">
</image>
</svg>
