<?xml version="1.0" encoding="utf-8"?>
<!-- Generator: Adobe Illustrator 24.1.2, SVG Export Plug-In . SVG Version: 6.00 Build 0)  -->
<svg xmlns:xlink="http://www.w3.org/1999/xlink" version="1.1" baseProfile="tiny"
     id="Calque_1" xmlns="http://www.w3.org/2000/svg" x="0px" y="0px" viewBox="0 0 16 16"
     overflow="visible" xml:space="preserve">
<image width="16" height="16" xlink:href="data:image/gif;base64,R0lGODlhEAAQAMQSAAAOBAAAAC7YYBOROBwACmLl1wAPH0L/ZgAODv8AAC0SAARrJE62qz+TijBx
ajn7c////zPqan5NKgAAAAAAAAAAAAAAAAAAAAAAAAAAAAAAAAAAAAAAAAAAAAAAAAAAACH5BAEA
ABIALAAAAAAQABAAAAVgoCRKRmmao4isR+u2RioIw2zfwLgiQ9/TvUVOBwAMhAfAIiIYpgiFAmFq
HDhFikLDIZUAHs2UJLvtFoviLITRFYsCAQW7wCC4JYFEQDKd3vN6d255e4IphIaHgYlvcIwhADs=">
</image>
</svg>
