<?xml version="1.0" encoding="utf-8"?>
<!-- Generator: Adobe Illustrator 24.1.2, SVG Export Plug-In . SVG Version: 6.00 Build 0)  -->
<svg xmlns:xlink="http://www.w3.org/1999/xlink" version="1.1" baseProfile="tiny"
     id="Calque_1" xmlns="http://www.w3.org/2000/svg" x="0px" y="0px" viewBox="0 0 16 16"
     overflow="visible" xml:space="preserve">
<image width="16" height="16" xlink:href="data:image/gif;base64,R0lGODlhEAAQAMQAABQUFI1qS+24g58UFP/1ssoUFKCadXRwV6xdO72SZ2NJM/+EY///tjYUFP/B
jvgUFOlTPUEUFNE/L/89MP//lP9mTH5NKgAAAAAAAAAAAAAAAAAAAAAAAAAAAAAAAAAAACH5BAEA
ABYALAAAAAAQABAAAAVpoCWOZGkCaGqOQOC+wAoIxEIIE5TEZCssFYEwkQjwRK2Fg8BkCoysgCBF
bUEtPgQDIUBQEDCkVCh9KRRX7KBACNwC6DQ28CgM7oWCZHBEFiIHBgYHDXwna1R3fSwFgYMFiz13
iis9KiUhADs=">
</image>
</svg>
