<?xml version="1.0" encoding="UTF-8"?>
<svg xmlns="http://www.w3.org/2000/svg" xmlns:xlink="http://www.w3.org/1999/xlink" width="16" height="16" viewBox="0 0 16 16">
    <image width="16" height="16" x="0" y="0" xlink:href="data:img/png;base64,iVBORw0KGgoAAAANSUhEUgAAABAAAAAQBAMAAADt3eJSAAAAGFBMVEUAAADnPS//+OL5ybWtLiN5IBh+TSoAAADdIdmDAAAAB3RSTlP///////8AGksDRgAAAFVJREFUeJxjSIMCBmRGAhuUwSgAYSQ4m7CBGawCjAFgBqMBswCIkeCswASUY0hjEVJgUnQAMhiNlJSUBdIYEpyVFJiUTNgYEgTBgI0hjQEMUO1CZQAAV5gjABs21VAAAAAASUVORK5CYII="/>
</svg>