<?xml version="1.0" encoding="utf-8"?>
<!-- Generator: Adobe Illustrator 24.1.2, SVG Export Plug-In . SVG Version: 6.00 Build 0)  -->
<svg xmlns:xlink="http://www.w3.org/1999/xlink" version="1.1" baseProfile="tiny"
     id="Calque_1" xmlns="http://www.w3.org/2000/svg" x="0px" y="0px" viewBox="0 0 16 17"
     overflow="visible" xml:space="preserve">
<image width="16" height="17" xlink:href="data:image/gif;base64,R0lGODlhEAARAMQTADoYA104DSsXCraCReKeWohUGP/0edGVUtmZVbeER21CEcmPTmA7DWhADraD
Rb+ISmI9DcKKSnRHE35NKgAAAAAAAAAAAAAAAAAAAAAAAAAAAAAAAAAAAAAAAAAAAAAAACH5BAEA
ABMALAAAAAAQABEAAAVn4CSOQAmI5qgCAXFOQPGqcPvGrzDp9XHLIoEQFUDcJCeBQaljLW6K3FDA
itwaUh01kLhBss3AwARgnGIDgos1LqhLqMJgzibDiYGS+JYnAetEZ3Z1gywBh3l7LQ8OY4V7gzV8
Y4ETIQA7">
</image>
</svg>
