<?xml version="1.0" encoding="utf-8"?>
<!-- Generator: Adobe Illustrator 24.1.2, SVG Export Plug-In . SVG Version: 6.00 Build 0)  -->
<svg xmlns:xlink="http://www.w3.org/1999/xlink" version="1.1" baseProfile="tiny"
     id="Calque_1" xmlns="http://www.w3.org/2000/svg" x="0px" y="0px" viewBox="0 0 16 16"
     overflow="visible" xml:space="preserve">
<image width="16" height="16" xlink:href="data:image/gif;base64,R0lGODlhEAAQALMMAAAAALF9Q3ZOIer/Rc+VVEsyFe2sZcCJS5elKl4+Gv///8qSVH5NKgAAAAAA
AAAAACH5BAEAAAwALAAAAAAQABAAAARbkMlJGah4AnUz3cjQeSASXkA6AkMbtqlhrOlwqkGgxiw8
A7mCQVjQ7YyBQ3EZDCSSqdxzKnXmUoKsdruN5r7g7wHLLWejBEH6IDgE2oIAIUVIL9TqtH6+6/sB
EQA7">
</image>
</svg>
