<?xml version="1.0" encoding="utf-8"?>
<!-- Generator: Adobe Illustrator 24.1.2, SVG Export Plug-In . SVG Version: 6.00 Build 0)  -->
<svg xmlns:xlink="http://www.w3.org/1999/xlink" version="1.1" baseProfile="tiny"
     id="Calque_1" xmlns="http://www.w3.org/2000/svg" x="0px" y="0px" viewBox="0 0 16 17"
     overflow="visible" xml:space="preserve">
<image width="16" height="17" xlink:href="data:image/gif;base64,R0lGODlhEAARANUoADQdAP/OMv+lY51VIf///14nAPaYH9J4BKZfAv/ZvQAAAJlhAGIrAP/NLv+7
Y6ZiLUguBeJ/Nl5AAOSEPY9XANaDBqdhAkUsAF9BAI1VANR+BXZcHNN8BYdQAIdPAGUuAK1qAzUe
AKBZJXVUBWs0ANN7BU4zADcfAH5NKgAAAAAAAAAAAAAAAAAAAAAAAAAAAAAAAAAAAAAAAAAAAAAA
AAAAAAAAAAAAAAAAAAAAAAAAAAAAAAAAAAAAAAAAAAAAACH5BAEAACgALAAAAAAQABEAAAZ8QJRw
GBgaj0VUUnlsLoXPZWBKrCqLAQJh2oAis1ptg3oEhCCbEQbANiYBiIrBYeAgAN4hoEDKLDwMBXhN
AAMPAgkCIgODZQMKApAKjE0ohQUCmAWUhAMTiAIRnGUFHxQLHYGNRnAgoBZ3hAcHGnMGJbOrbGwn
JhIXu20oQQA7">
</image>
</svg>
