<svg xmlns="http://www.w3.org/2000/svg" width="80" zoomAndPan="magnify" viewBox="0 0 60 40.499999" height="54" preserveAspectRatio="xMidYMid meet" version="1.0">
    <defs>
        <clipPath id="b2f0007d76">
            <path d="M 0.367188 0 L 59.632812 0 L 59.632812 40.007812 L 0.367188 40.007812 Z M 0.367188 0 " clip-rule="nonzero"/>
        </clipPath>
        <clipPath id="2e6f496734">
            <path d="M 0.367188 0 L 20.449219 0 L 20.449219 40.007812 L 0.367188 40.007812 Z M 0.367188 0 " clip-rule="nonzero"/>
        </clipPath>
        <clipPath id="dc22d3035e">
            <path d="M 20.449219 0 L 39.550781 0 L 39.550781 40.007812 L 20.449219 40.007812 Z M 20.449219 0 " clip-rule="nonzero"/>
        </clipPath>
        <clipPath id="6f7a7923d2">
            <path d="M 39.550781 0 L 59.632812 0 L 59.632812 40.007812 L 39.550781 40.007812 Z M 39.550781 0 " clip-rule="nonzero"/>
        </clipPath>
    </defs>
    <g clip-path="url(#b2f0007d76)">
        <path fill="#ffffff" d="M 0.367188 0 L 59.632812 0 L 59.632812 40.007812 L 0.367188 40.007812 Z M 0.367188 0 " fill-opacity="1" fill-rule="nonzero"/>
        <path fill="#ffffff" d="M 0.367188 0 L 59.632812 0 L 59.632812 40.007812 L 0.367188 40.007812 Z M 0.367188 0 " fill-opacity="1" fill-rule="nonzero"/>
    </g>
    <g clip-path="url(#2e6f496734)">
        <path fill="#000091" d="M -2.433594 -1.109375 L 20.449219 -1.109375 L 20.449219 41.113281 L -2.433594 41.113281 Z M -2.433594 -1.109375 " fill-opacity="1" fill-rule="nonzero"/>
    </g>
    <g clip-path="url(#dc22d3035e)">
        <path fill="#ffffff" d="M 20.449219 0 L 39.550781 0 L 39.550781 40.007812 L 20.449219 40.007812 Z M 20.449219 0 " fill-opacity="1" fill-rule="nonzero"/>
    </g>
    <g clip-path="url(#6f7a7923d2)">
        <path fill="#e1000f" d="M 39.550781 -1.109375 L 61.113281 -1.109375 L 61.113281 41.113281 L 39.550781 41.113281 Z M 39.550781 -1.109375 " fill-opacity="1" fill-rule="nonzero"/>
    </g>
</svg>