{
  "1": {
	"id"          : 1,
	"nom"         : "Lit de camp",
	"pa"          : 0,
	"pa_u"        : 0,
	"def"         : 0,
	"ressources"  : [],
	"ressources_u": [],
	"icon"        : "lv0"
  },
  "2": {
	"id"          : 2,
	"nom"         : "Tente",
	"pa"          : 2,
	"pa_u"        : 2,
	"def"         : 1,
	"ressources"  : [],
	"ressources_u": [],
	"icon"        : "lv1"
  },
  "3": {
	"id"          : 3,
	"nom"         : "Taudis",
	"pa"          : 4,
	"pa_u"        : 4,
	"def"         : 4,
	"ressources"  : {
	  "139": 1
	},
	"ressources_u": [],
	"icon"        : "lv2"
  },
  "4": {
	"id"          : 4,
	"nom"         : "Baraque",
	"pa"          : 5,
	"pa_u"        : 4,
	"def"         : 9,
	"ressources"  : {
	  "49": 1
	},
	"ressources_u": {
	  "49": 1
	},
	"icon"        : "lv3"
  },
  "5": {
	"id"          : 5,
	"nom"         : "Maison",
	"pa"          : 6,
	"pa_u"        : 5,
	"def"         : 16,
	"ressources"  : {
	  "50": 1
	},
	"ressources_u": {
	  "50": 1
	},
	"icon"        : "lv4"
  },
  "6": {
	"id"          : 6,
	"nom"         : "Maison clôturée",
	"pa"          : 6,
	"pa_u"        : 6,
	"def"         : 25,
	"ressources"  : {
	  "49" : 2,
	  "50" : 2,
	  "136": 1,
	  "30" : 1
	},
	"ressources_u": {
	  "49" : 2,
	  "50" : 2,
	  "136": 1
	},
	"icon"        : "lv5"
  },
  "7": {
	"id"          : 7,
	"nom"         : "Abri fortifié",
	"pa"          : 7,
	"pa_u"        : 6,
	"def"         : 36,
	"ressources"  : {
	  "49" : 2,
	  "50" : 3,
	  "113": 1,
	  "77" : 1,
	  "174": 1
	},
	"ressources_u": {
	  "49": 2,
	  "50": 3,
	  "77": 1
	},
	"icon"        : "lv6"
  },
  "8": {
	"id"          : 8,
	"nom"         : "Bunker",
	"pa"          : 7,
	"pa_u"        : 7,
	"def"         : 49,
	"ressources"  : {
	  "88" : 1,
	  "35" : 1,
	  "113": 2,
	  "137": 1,
	  "50" : 6,
	  "77" : 1,
	  "75" : 1
	},
	"ressources_u": {
	  "88" : 1,
	  "35" : 1,
	  "113": 2,
	  "137": 1,
	  "50" : 4
	},
	"icon"        : "lv7"
  },
  "9": {
	"id"          : 9,
	"nom"         : "Château",
	"pa"          : 8,
	"pa_u"        : 8,
	"def"         : 64,
	"ressources"  : {
	  "137": 2,
	  "136": 3,
	  "35" : 2,
	  "113": 2,
	  "77" : 3,
	  "49" : 5,
	  "50" : 8,
	  "192": 1
	},
	"ressources_u": {
	  "137": 2,
	  "136": 3,
	  "35" : 1,
	  "113": 2,
	  "77" : 2,
	  "49" : 5,
	  "50" : 8
	},
	"icon"        : "lv8"
  }
}