[
  {
	"id"   : 1,
	"nom"  : "Région Non-éloignée",
	"abrev": "RNE",
	"icon" : "r_guide"
  },
  {
	"id"   : 2,
	"nom"  : "Région Eloignée",
	"abrev": "RE",
	"icon" : "h_ghost"
  },
  {
	"id"   : 3,
	"nom"  : "Pandemonium",
	"abrev": "Pande",
	"icon" : "h_arma"
  }
]