<?xml version="1.0" encoding="utf-8"?>
<!-- Generator: Adobe Illustrator 24.1.2, SVG Export Plug-In . SVG Version: 6.00 Build 0)  -->
<svg xmlns:xlink="http://www.w3.org/1999/xlink" version="1.1" baseProfile="tiny"
     id="Calque_1" xmlns="http://www.w3.org/2000/svg" x="0px" y="0px" viewBox="0 0 42 42"
     overflow="visible" xml:space="preserve">
<image width="19" height="19" xlink:href="data:image/png;base64,iVBORw0KGgoAAAANSUhEUgAAABQAAAAUCAYAAACNiR0NAAAACXBIWXMAAA3+AAAN/gEmzVBtAAAA
GXRFWHRTb2Z0d2FyZQBBZG9iZSBJbWFnZVJlYWR5ccllPAAAARlJREFUeNpiYBgF9AANQPwfihso
NszL3+z/hj31YAxiEzKUhZCJZoZeDKYGnmD2BUNGhm0bTzFQZOCzt6eAWBjOJgSYCCl48ugNw9PH
EAxiA0E9vjBlxBd+dk669erC3Az/Hr2F2C4nzGAXacegoS3LMHvKdoZZk7c1ohvKgiNWQa5g4OHl
ZFCQE2fgY+YAS3yS5mdYvvAA6WGYluvFkJrjCXbF5UPXGcJN1MDiK4HsbadvNaJZTthAUFjVly0G
x2iEqRqutEm0CxuQk8bj91/qt5y7yfDmw0eGm2+/EoxlFjy5A0zLCvIwyAhygzlv/gKVv/lKWbIh
FVDdQII5BRiGDNxM/6lnIHIYfv3HSLmBK07fIsnLAAEGAKCbZvCkQ9yYAAAAAElFTkSuQmCC" transform="matrix(0.7895 0 0 0.7895 9.02 22.9444)">
</image>
    <rect x="2" y="29.4" width="13.6" height="11.4"/>
    <text transform="matrix(1 0 0 1 2.5679 39.1)" fill="#FFFFFF" font-family="'MyriadPro-Regular'" font-size="12px">40</text>
</svg>
